{
  "name": "",
  "css_prefix_text": "icon-",
  "css_use_suffix": false,
  "hinting": true,
  "units_per_em": 1000,
  "ascent": 850,
  "glyphs": [
    {
      "uid": "e6f75a537339db4e8c221daf83e3dd54",
      "css": "viber",
      "code": 59422,
      "src": "custom_icons",
      "selected": true,
      "svg": {
        "path": "M500 0C223.9 0 0 223.8 0 500 0 776.1 223.9 1000 500 1000 776.1 1000 1000 776.1 1000 500 1000 223.8 776.1 0 500 0ZM725.8 294.1C710.5 280 648.8 235.2 511.2 234.5 511.2 234.5 348.9 224.7 269.8 297.3 225.8 341.4 210.3 405.7 208.7 485.7 207.1 565.6 205 715.2 349.3 755.9L349.4 755.9 349.3 817.8S348.4 842.9 364.9 848C384.9 854.3 396.6 835.2 415.7 814.6 426.1 803.4 440.6 786.8 451.5 774.1 550.2 782.4 626.1 763.5 634.7 760.6 654.6 754.2 767.4 739.7 785.8 590 804.7 435.7 776.6 338.1 725.8 294.1ZM742.5 578.9C727 703.9 635.6 711.8 618.8 717.2 611.6 719.5 544.9 736.1 461 730.6 461 730.6 398.6 806 379.1 825.5 376 828.6 372.5 829.9 370 829.3 366.7 828.5 365.8 824.5 365.8 818.7L366.3 715.8C244.3 681.8 251.4 554.4 252.8 487.7 254.2 421 266.7 366.3 303.9 329.5 370.8 268.9 508.6 278 508.6 278 625 278.5 680.8 313.5 693.7 325.3 736.7 362 758.5 450 742.5 578.9ZM522.9 586.4S533.8 587.4 539.7 580.1L551.2 565.6C556.7 558.5 570.1 553.9 583.2 561.2 600.5 571 622.9 586.3 638.3 600.7 646.7 607.8 648.7 618.3 642.9 629.4L642.8 629.6C636.9 640.1 629 649.9 619 659L618.8 659.2C607.5 668.6 594.5 674.1 580.6 669.6L580.4 669.2C555.5 662.2 495.7 631.7 457.6 601.3 395.3 552.1 351 471 338.7 427.6L338.4 427.3C333.9 413.4 339.4 400.4 348.7 389.2L348.9 389C358 379 367.9 371 378.3 365.1L378.5 365C389.6 359.3 400.1 361.3 407.3 369.7 416.7 379.4 434.4 402.8 446.7 424.8 454 437.9 449.5 451.3 442.3 456.8L427.9 468.3C420.6 474.2 421.5 485.1 421.5 485.1S442.9 566 522.9 586.4ZM648.7 519.3C653 519.3 656.4 515.8 656.4 511.5 656 460.3 640.3 419.2 609.8 389.4 579.4 359.8 541 344.5 495.9 344.2H495.8C491.5 344.2 488 347.7 488 351.9 488 356.2 491.5 359.8 495.8 359.8 536.8 360 571.5 373.8 599 400.6 626.4 427.3 640.5 464.7 640.8 511.6 640.9 515.9 644.3 519.3 648.6 519.3H648.7ZM607.8 503.3H607.6C603.3 503.2 599.9 499.7 600 495.4 600.6 468.8 593 447.3 576.8 429.6 560.6 411.9 538.4 402.2 509 400.1 504.7 399.8 501.4 396 501.8 391.8 502.1 387.5 505.8 384.3 510.1 384.6 543.3 387 569.5 398.6 588.2 419 607 439.6 616.2 465.4 615.5 495.7 615.4 500 612 503.3 607.8 503.3ZM567.8 490C563.7 490 560.3 486.8 560 482.6 558.8 456.2 546.3 443.3 520.9 441.9 516.6 441.6 513.3 438 513.5 433.7 513.8 429.4 517.5 426.1 521.8 426.3 555.3 428.1 573.9 447.3 575.6 481.8 575.8 486.1 572.5 489.8 568.2 490H567.8Z",
        "width": 1000
      },
      "search": [
        "viber"
      ]
    },
    {
      "uid": "f6c85bfec0ce004b09bf5bdb290ef24b",
      "css": "fb",
      "code": 59392,
      "src": "custom_icons",
      "selected": true,
      "svg": {
        "path": "M500 0A500 500 0 1 0 1000 500 500 500 0 0 0 500 0ZM691 254H622C568 255 559 280 559 318V402H689V532H559V867H422V532H309V402H422V305A158 158 0 0 1 590 132H691V254ZM691 254",
        "width": 1000
      },
      "search": [
        "fb"
      ]
    },
    {
      "uid": "07d6bcc08dfc73e66cac0e1eacd15a0c",
      "css": "email",
      "code": 59393,
      "src": "custom_icons",
      "selected": true,
      "svg": {
        "path": "M112 281L245 374 415 494 442 513 478 538 511 559A197 197 0 0 0 549 576 99 99 0 0 0 581 582H581A99 99 0 0 0 614 576 197 197 0 0 0 652 559L685 538 720 513 748 494 1052 282A308 308 0 0 0 1131 202 172 172 0 0 0 1163 104 99 99 0 0 0 1132 31 99 99 0 0 0 1059 0H104A93 93 0 0 0 27 34 131 131 0 0 0 0 118 152 152 0 0 0 36 207 322 322 0 0 0 112 282ZM112 281M1099 437Q889 581 775 661L715 704A365 365 0 0 1 654 735 187 187 0 0 1 582 751H582A187 187 0 0 1 511 735 368 368 0 0 1 450 704L388 661Q296 592 65 437A345 345 0 0 1 0 381V896A99 99 0 0 0 31 969 99 99 0 0 0 104 1000H1059A104 104 0 0 0 1163 896V381A359 359 0 0 1 1098 437ZM1099 437",
        "width": 1163
      },
      "search": [
        "email"
      ]
    },
    {
      "uid": "5e09053e6a0f508848867f91fe05fae9",
      "css": "map",
      "code": 59394,
      "src": "custom_icons",
      "selected": true,
      "svg": {
        "path": "M599 102C463-34 238-34 102 102-20 224-34 456 68 599L347 1007 626 599C735 456 721 224 599 102L599 102ZM354 463C293 463 238 408 238 347 238 286 293 231 354 231 415 231 469 286 469 347 469 408 415 463 354 463L354 463ZM354 463",
        "width": 701
      },
      "search": [
        "map"
      ]
    },
    {
      "uid": "98359b25d65f1739c92863adcb0ff764",
      "css": "instagram",
      "code": 59395,
      "src": "custom_icons",
      "selected": true,
      "svg": {
        "path": "M649 266H351C303 266 265 305 265 352V650C265 698 303 737 351 737H649C697 737 735 698 735 650V352C735 305 697 266 649 266ZM500 656C415 656 345 587 345 501 345 416 415 346 500 346 585 346 655 416 655 501 655 587 585 656 500 656ZM660 378C640 378 623 362 623 342 623 322 640 305 660 305 680 305 697 322 697 342 697 362 680 378 660 378ZM500 412C451 412 411 452 411 501 411 551 451 591 500 591 549 591 590 551 590 501 590 452 549 412 500 412ZM500 0C224 0 0 224 0 500 0 776 224 1000 500 1000 776 1000 1000 776 1000 500 1000 224 776 0 500 0ZM801 650C801 734 733 802 649 802H351C267 802 199 734 199 650V352C199 269 267 201 351 201H649C733 201 801 269 801 352V650Z",
        "width": 1000
      },
      "search": [
        "instagram"
      ]
    },
    {
      "uid": "3c57b7968f4e089af903ca167fc86fc7",
      "css": "time",
      "code": 59396,
      "src": "custom_icons",
      "selected": true,
      "svg": {
        "path": "M496 0C223 0 0 223 0 496 0 770 223 993 496 993 770 993 993 770 993 496 1000 223 770 0 496 0L496 0ZM496 892C281 892 101 719 101 496 101 281 273 101 496 101 712 101 892 273 892 496 892 712 712 892 496 892L496 892ZM496 892M755 489H561V216C561 194 511 173 489 173 468 173 417 194 417 216V525C417 547 468 561 496 561H763C784 561 806 547 806 525 799 496 784 489 755 489L755 489ZM755 482",
        "width": 1000
      },
      "search": [
        "time"
      ]
    },
    {
      "uid": "f42cec6f1a954ddd187da5799206a572",
      "css": "phone",
      "code": 59397,
      "src": "custom_icons",
      "selected": true,
      "svg": {
        "path": "M980 791L825 636A81 81 0 0 0 712 636L634 714 618 705A777 777 0 0 1 428 572 779 779 0 0 1 292 384L283 368 343 317 368 291A81 81 0 0 0 368 177L212 22A81 81 0 0 0 98 22L54 68H54A257 257 0 0 0 18 132 257 257 0 0 0 0 198C-17 367 60 521 271 732 561 1022 795 1001 806 999A261 261 0 0 0 870 983 250 250 0 0 0 933 947H933L978 903A81 81 0 0 0 978 789ZM980 791",
        "width": 1003
      },
      "search": [
        "phone"
      ]
    },
    {
      "uid": "1393360cd1bfaf1fb63ff56bc6f938ed",
      "css": "twitter",
      "code": 59399,
      "src": "custom_icons",
      "selected": true,
      "svg": {
        "path": "M500 0C224 0 0 224 0 500 0 776 224 1000 500 1000 776 1000 1000 776 1000 500 1000 224 776 0 500 0ZM723 386C723 390 723 395 723 400 723 553 608 728 396 728 331 728 270 709 220 676 229 677 238 678 247 678 301 678 351 659 390 629 340 628 297 594 282 549 289 550 297 551 304 551 315 551 325 549 334 547 282 536 242 490 242 434 242 433 242 433 242 432 258 441 275 446 294 447 263 426 243 391 243 351 243 330 249 310 259 293 315 363 400 409 496 413 494 405 493 396 493 387 493 324 544 272 608 272 641 272 671 286 692 308 718 303 743 294 765 280 756 307 738 330 714 344 738 341 760 335 780 326 765 349 746 369 723 386Z",
        "width": 1000
      },
      "search": [
        "twitter"
      ]
    },
    {
      "uid": "25109d5a94223b2f7e69a715bfce6f5c",
      "css": "vk",
      "code": 59400,
      "src": "custom_icons",
      "selected": true,
      "svg": {
        "path": "M500 0A500 500 0 1 0 1000 500 500 500 0 0 0 500 0ZM754 554A957 957 0 0 1 823 623 201 201 0 0 1 848 659C857 678 848 698 832 699H729A79 79 0 0 1 664 672C650 658 637 642 623 627A98 98 0 0 0 604 611 21 21 0 0 0 571 619 108 108 0 0 0 561 667C561 691 552 697 528 698A262 262 0 0 1 381 667 324 324 0 0 1 282 574 1244 1244 0 0 1 152 343C144 325 152 315 170 315 203 315 237 315 271 315A30 30 0 0 1 298 333 622 622 0 0 0 366 461 108 108 0 0 0 391 489 16 16 0 0 0 418 482 87 87 0 0 0 424 456 393 393 0 0 0 424 363 39 39 0 0 0 391 328C381 326 381 322 386 317A37 37 0 0 1 417 301H533C551 305 556 313 558 331V459C558 467 561 488 574 492S591 488 598 481A399 399 0 0 0 663 381C671 365 678 349 684 333A25 25 0 0 1 710 315H831C850 319 855 327 850 345A279 279 0 0 1 805 421C787 447 767 472 749 498S733 533 754 554ZM754 554",
        "width": 1000
      },
      "search": [
        "vk"
      ]
    },
    {
      "uid": "c9f783ab7e31d4d01ac9f98a2811d94b",
      "css": "www",
      "code": 59401,
      "src": "custom_icons",
      "selected": true,
      "svg": {
        "path": "M474 958V732A716 716 0 0 0 335 753 310 310 0 0 0 474 958ZM716 533H540V666A780 780 0 0 1 697 689 898 898 0 0 0 716 533ZM540 42V267A713 713 0 0 0 677 246 310 310 0 0 0 540 42ZM697 311A780 780 0 0 1 540 334V467H716A890 890 0 0 0 697 311ZM474 267V42A310 310 0 0 0 334 246 716 716 0 0 0 473 267ZM474 533H298A898 898 0 0 0 318 689 782 782 0 0 1 474 666V533ZM474 334A782 782 0 0 1 318 311 891 891 0 0 0 298 467H474V334ZM677 754A713 713 0 0 0 538 733V958A310 310 0 0 0 677 754ZM1016 533H783A946 946 0 0 1 762 708 782 782 0 0 1 931 787 508 508 0 0 0 1016 533ZM130 840A508 508 0 0 0 415 1000 429 429 0 0 1 271 772 716 716 0 0 0 130 840ZM600 1000A508 508 0 0 0 885 840 716 716 0 0 0 743 772 429 429 0 0 1 600 1000ZM783 467H1016A508 508 0 0 0 931 212 782 782 0 0 1 762 292 938 938 0 0 1 784 467ZM254 292A782 782 0 0 1 85 212 508 508 0 0 0 0 467H231A938 938 0 0 1 254 292ZM254 708A946 946 0 0 1 232 533H0A508 508 0 0 0 85 787 782 782 0 0 1 254 707ZM415 0A508 508 0 0 0 130 160 716 716 0 0 0 271 228 429 429 0 0 1 415 0ZM743 228A716 716 0 0 0 885 160 508 508 0 0 0 600 0 429 429 0 0 1 743 228Z",
        "width": 1014
      },
      "search": [
        "www"
      ]
    },
    {
      "uid": "c9b83b3210e70e90f538540c310b1c40",
      "css": "youtube-symbol",
      "code": 59402,
      "src": "custom_icons",
      "selected": true,
      "svg": {
        "path": "M409 610C484 571 558 532 633 493 558 454 484 415 409 376 409 454 409 531 409 610ZM500 0C224 0 0 224 0 500S224 1000 500 1000 1000 776 1000 500 776 0 500 0ZM841 667C832 704 801 732 764 736 677 746 588 746 500 746 412 746 323 746 236 736 199 732 168 704 159 667 147 613 147 555 147 500S147 387 159 333C168 296 199 268 236 264 323 254 412 254 500 254 588 254 677 254 765 264 802 268 832 295 841 333 853 387 853 445 853 500S853 613 841 667Z",
        "width": 1000
      },
      "search": [
        "youtube-symbol"
      ]
    },
    {
      "uid": "57f00deab7db2fc0d1fa10458228bad3",
      "css": "pinterest",
      "code": 59403,
      "src": "custom_icons",
      "selected": true,
      "svg": {
        "path": "M500 0C224 0 0 224 0 500 0 776 224 1000 500 1000 776 1000 1000 776 1000 500 1000 224 776 0 500 0ZM549 668C503 665 484 642 448 620 429 723 405 822 334 873 312 718 366 601 391 477 348 405 396 261 487 296 598 340 390 564 529 592 675 621 734 340 644 249 514 117 265 246 296 434 303 481 351 495 315 558 232 540 207 474 210 387 215 244 339 143 463 129 619 112 767 187 787 334 810 501 716 681 549 668Z",
        "width": 1000
      },
      "search": [
        "pinterest"
      ]
    },
    {
      "uid": "fbca5823ae2725a0c6fbdc2b8f7514d9",
      "css": "google-plus",
      "code": 59404,
      "src": "custom_icons",
      "selected": true,
      "svg": {
        "path": "M872 171C1194 536 845 1105 374 983 372 983 371 981 370 980 192 937 45 763 12 589-28 378 74 158 263 57 466-51 720-1 872 171ZM855 463C853 463 850 463 848 463 835 463 822 463 810 460 804 463 796 460 794 453 790 438 792 423 792 407 778 408 763 406 749 405 743 404 738 403 732 403 731 416 731 430 730 443 733 454 726 469 712 470 696 471 678 470 661 467 661 484 661 500 661 517 661 522 661 527 661 532 678 530 695 530 713 530 723 531 734 540 733 551 732 566 731 581 730 597 751 598 771 600 791 602 792 586 793 571 792 555 792 544 802 532 814 533 827 534 840 534 853 533 853 510 854 487 855 463ZM428 728C559 703 600 588 582 472 513 467 444 466 375 465 374 464 372 464 371 464 373 472 374 481 375 490 377 508 379 527 380 546 414 544 448 544 481 546 493 547 497 561 491 568 485 623 408 642 361 640 292 637 244 579 234 514S254 380 318 356C372 336 421 359 462 392 471 381 481 370 490 359 499 350 508 337 518 328 434 282 347 254 255 308 167 359 124 465 153 564 186 677 312 751 428 728Z",
        "width": 1000
      },
      "search": [
        "google-plus"
      ]
    },
    {
      "uid": "d30d068c61a09a7ac0e6456679fdf999",
      "css": "logo",
      "code": 59405,
      "src": "custom_icons",
      "selected": true,
      "svg": {
        "path": "M468 6A1699 1699 0 0 0 376 359C376 459 495 602 495 719A771 771 0 0 1 383 999L404 999C627 999 808 775 808 496 808 251 661 45 468 6ZM423 719C423 605 304 459 304 359A1709 1709 0 0 1 398 0C178 4 0 226 0 503 0 742 135 942 316 991A738 738 0 0 0 423 719Z",
        "width": 808
      },
      "search": [
        "logo"
      ]
    },
    {
      "uid": "bd92c8b2a9bd68c1434b1a4899d2e48e",
      "css": "telegram",
      "code": 62150,
      "src": "custom_icons",
      "selected": true,
      "svg": {
        "path": "M664 729L746 343Q751 318 740 307T711 304L229 489Q213 495 207 503T205 518 223 529L347 567 633 387Q645 379 651 384 655 387 648 392L417 602 408 729Q421 729 433 716L493 658 618 751Q654 771 664 729ZM1000 500Q1000 602 960 694T854 854 694 960 500 1000 306 960 146 854 40 694 0 500 40 306 146 146 306 40 500 0 694 40 854 146 960 306 1000 500Z",
        "width": 1000
      },
      "search": [
        "telegram"
      ]
    }
  ]
}